[ {
  "id" : "ac29f0fd-39b9-1dae-5531-184040f8d9cd",
  "name" : "logo_link",
  "display_width" : null,
  "label" : "Logo Link",
  "required" : false,
  "locked" : false,
  "validation_regex" : "",
  "allow_new_line" : false,
  "show_emoji_picker" : false,
  "type" : "text",
  "default" : "https://fontpackaging.com/?__hstc=152295142.ae60c862d4c589f8230082bcf4154f47.1617857781785.1617857781785.1617857781785.1&__hssc=152295142.16.1617857781785&__hsfp=949744372"
}, {
  "id" : "f5edabf4-ddc8-d3e0-126f-abca0d51f8d2",
  "name" : "logo",
  "display_width" : null,
  "label" : "Logo",
  "required" : false,
  "locked" : false,
  "responsive" : true,
  "resizable" : false,
  "show_loading" : false,
  "type" : "image",
  "default" : {
    "size_type" : "auto",
    "src" : "https://f.hubspotusercontent20.net/hubfs/9149224/Font-Packaging-group.png",
    "alt" : "Font-Packaging-group",
    "loading" : "lazy",
    "width" : 270,
    "height" : 176,
    "max_width" : 270,
    "max_height" : 176
  }
} ]