{
  "email.custom_link_format.default" : {
    "message" : "mailto:?subject=Check out {{ social_link_url }} &body=Check out {{ social_link_url }}",
    "description" : "",
    "placeholders" : null
  },
  "email.custom_link_format.label" : {
    "message" : "Enlace",
    "description" : "",
    "placeholders" : null
  },
  "email.enabled.label" : {
    "message" : "¿Activado?",
    "description" : "",
    "placeholders" : null
  },
  "email.label" : {
    "message" : "Correo electrónico",
    "description" : "",
    "placeholders" : null
  },
  "facebook.custom_link_format.default" : {
    "message" : "http://www.facebook.com/share.php?u={{ social_link_url }}",
    "description" : "",
    "placeholders" : null
  },
  "facebook.custom_link_format.label" : {
    "message" : "Enlace",
    "description" : "",
    "placeholders" : null
  },
  "facebook.enabled.label" : {
    "message" : "¿Activado?",
    "description" : "",
    "placeholders" : null
  },
  "facebook.label" : {
    "message" : "Facebook",
    "description" : "",
    "placeholders" : null
  },
  "link.help_text" : {
    "message" : "Este es el enlace de destino que será acortado para compartirlo con más facilidad en las redes sociales.",
    "description" : "",
    "placeholders" : null
  },
  "link.label" : {
    "message" : "Enlazar URL",
    "description" : "",
    "placeholders" : null
  },
  "link.placeholder" : {
    "message" : "URL de página personalizada opcional",
    "description" : "",
    "placeholders" : null
  },
  "linkedin.custom_link_format.default" : {
    "message" : "http://www.linkedin.com/shareArticle?mini=true&url={{ social_link_url }}",
    "description" : "",
    "placeholders" : null
  },
  "linkedin.custom_link_format.label" : {
    "message" : "Enlace",
    "description" : "",
    "placeholders" : null
  },
  "linkedin.enabled.label" : {
    "message" : "¿Activado?",
    "description" : "",
    "placeholders" : null
  },
  "linkedin.label" : {
    "message" : "LinkedIn",
    "description" : "",
    "placeholders" : null
  },
  "name" : {
    "message" : "Compartir RRSS",
    "description" : null,
    "placeholders" : null
  },
  "pinterest.custom_link_format.default" : {
    "message" : "http://pinterest.com/pin/create/button/?url={{ social_link_url }}&media={{ pinterest_media }}",
    "description" : "",
    "placeholders" : null
  },
  "pinterest.custom_link_format.label" : {
    "message" : "Enlace",
    "description" : "",
    "placeholders" : null
  },
  "pinterest.enabled.label" : {
    "message" : "¿Activado?",
    "description" : "",
    "placeholders" : null
  },
  "pinterest.label" : {
    "message" : "Pinterest",
    "description" : "",
    "placeholders" : null
  },
  "pinterest.pinterest_media.label" : {
    "message" : "Anclar imagen",
    "description" : "",
    "placeholders" : null
  },
  "shareus_text.default" : {
    "message" : "",
    "description" : null,
    "placeholders" : null
  },
  "shareus_text.help_text" : {
    "message" : "",
    "description" : null,
    "placeholders" : null
  },
  "shareus_text.inline_help_text" : {
    "message" : "",
    "description" : null,
    "placeholders" : null
  },
  "shareus_text.label" : {
    "message" : "Rich text",
    "description" : null,
    "placeholders" : null
  },
  "shareus_text.placeholder" : {
    "message" : "",
    "description" : null,
    "placeholders" : null
  },
  "twitter.custom_link_format.default" : {
    "message" : "https://twitter.com/intent/tweet?original_referer={{ social_link_url }}&url={{ social_link_url }}&source=tweetbutton&text={{ social_page_title|urlencode }}",
    "description" : "",
    "placeholders" : null
  },
  "twitter.custom_link_format.label" : {
    "message" : "Enlace",
    "description" : "",
    "placeholders" : null
  },
  "twitter.enabled.label" : {
    "message" : "¿Activado?",
    "description" : "",
    "placeholders" : null
  },
  "twitter.label" : {
    "message" : "Twitter",
    "description" : "",
    "placeholders" : null
  }
}