[ {
  "id" : "56d699d5-74a7-1c57-c9f9-417b90a53042",
  "name" : "texto_enlace",
  "display_width" : null,
  "label" : "Texto enlace",
  "required" : false,
  "locked" : false,
  "validation_regex" : "",
  "allow_new_line" : false,
  "show_emoji_picker" : false,
  "type" : "text",
  "default" : "Descargar Ficha de Producto"
}, {
  "id" : "287cb80f-4df2-985e-6158-929ec6bd5ff1",
  "name" : "link_field",
  "display_width" : null,
  "label" : "Enlace",
  "required" : false,
  "locked" : false,
  "supported_types" : [ "EXTERNAL", "CONTENT", "FILE" ],
  "show_advanced_rel_options" : false,
  "type" : "link",
  "default" : {
    "url" : {
      "content_id" : null,
      "href" : "",
      "type" : "FILE"
    },
    "open_in_new_tab" : false,
    "no_follow" : false
  }
} ]