[ {
  "id" : "a5a35281-ecc0-aac7-3fe3-301ad4cb6727",
  "name" : "banner_image",
  "display_width" : null,
  "label" : "Banner Image",
  "required" : false,
  "locked" : false,
  "responsive" : true,
  "resizable" : false,
  "show_loading" : false,
  "type" : "image",
  "default" : {
    "size_type" : "auto",
    "src" : "https://f.hubspotusercontent20.net/hubfs/9149224/embalaje-de-frio.jpg",
    "alt" : "embalaje-de-frio",
    "loading" : "lazy",
    "width" : 1999,
    "height" : 600,
    "max_width" : 1999,
    "max_height" : 600
  }
} ]